<?xml version="1.0" encoding="UTF-8"?>
<testng-results ignored="0" total="0" passed="0" failed="0" skipped="0">
  <reporter-output>
  </reporter-output>
  <suite started-at="2020-01-22T15:37:24 IST" name="Com.DevopsPractise.AppTest" finished-at="2020-01-22T15:37:24 IST" duration-ms="8">
    <groups>
    </groups>
    <test started-at="2020-01-22T15:37:24 IST" name="Command line test" finished-at="2020-01-22T15:37:24 IST" duration-ms="8">
    </test> <!-- Command line test -->
  </suite> <!-- Com.DevopsPractise.AppTest -->
</testng-results>
